…
``` r
getCountryJs <- fromJSON(getCountryText, flatten = TRUE)
getCountryJs2 <- fromJSON(getCountryText2, flatten = TRUE)
```

We will convert the parsed JSON data for Norway & Switzerland into a
tibble for our analysis.

``` r
getCountryJsTb <- as_tibble(getCountryJs)
getCountryJsTb
```

    ## # A tibble: 32 x 10
    ##    Country     CountryCode Province City  CityCode Lat   Lon   Cases Status Date 
    ##    <chr>       <chr>       <chr>    <chr> <chr>    <chr> <chr> <int> <chr>  <chr>
    ##  1 Switzerland CH          ""       ""    ""       46.82 8.23     27 confi~ 2020~
    ##  2 Switzerland CH          ""       ""    ""       46.82 8.23     42 confi~ 2020~
    ##  3 Switzerland CH          ""       ""    ""       46.82 8.23     56 confi~ 2020~
    ##  4 Switzerland CH          ""       ""    ""       46.82 8.23     90 confi~ 2020~
    ##  5 Switzerland CH          ""       ""    ""       46.82 8.23    114 confi~ 2020~
    ##  6 Switzerland CH          ""       ""    ""       46.82 8.23    214 confi~ 2020~
    ##  7 Switzerland CH          ""       ""    ""       46.82 8.23    268 confi~ 2020~
    ##  8 Switzerland CH          ""       ""    ""       46.82 8.23    337 confi~ 2020~
    ##  9 Switzerland CH          ""       ""    ""       46.82 8.23    374 confi~ 2020~
    ## 10 Switzerland CH          ""       ""    ""       46.82 8.23    491 confi~ 2020~
    ## # ... with 22 more rows

``` r
getCountryJs2Tb <- as_tibble(getCountryJs2)
getCountryJs2Tb
```

    ## # A tibble: 32 x 10
    ##    Country CountryCode Province City  CityCode Lat   Lon   Cases Status    Date  
    ##    <chr>   <chr>       <chr>    <chr> <chr>    <chr> <chr> <int> <chr>     <chr> 
    ##  1 Norway  NO          ""       ""    ""       60.47 8.47     19 confirmed 2020-~
    ##  2 Norway  NO          ""       ""    ""       60.47 8.47     25 confirmed 2020-~
    ##  3 Norway  NO          ""       ""    ""       60.47 8.47     32 confirmed 2020-~
    ##  4 Norway  NO          ""       ""    ""       60.47 8.47     56 confirmed 2020-~
    ##  5 Norway  NO          ""       ""    ""       60.47 8.47     87 confirmed 2020-~
    ##  6 Norway  NO          ""       ""    ""       60.47 8.47    108 confirmed 2020-~
    ##  7 Norway  NO          ""       ""    ""       60.47 8.47    147 confirmed 2020-~
    ##  8 Norway  NO          ""       ""    ""       60.47 8.47    176 confirmed 2020-~
    ##  9 Norway  NO          ""       ""    ""       60.47 8.47    205 confirmed 2020-~
    ## 10 Norway  NO          ""       ""    ""       60.47 8.47    400 confirmed 2020-~
    ## # ... with 22 more rows

We will now combine the data for Norway and Switzerland into one data
frame using the rbind function and remove the empty columns Province,
City, & CityCode.

``` r
NorSwiz <- function(df1, df2) {rbind(df1, df2)}
Combo <- NorSwiz(df1 = getCountryJsTb, df2 = getCountryJs2Tb)
Combo$Province <- NULL
Combo$City <- NULL
Combo$CityCode <- NULL
Combo
```

    ## # A tibble: 64 x 7
    ##    Country     CountryCode Lat   Lon   Cases Status    Date                
    ##    <chr>       <chr>       <chr> <chr> <int> <chr>     <chr>               
    ##  1 Switzerland CH          46.82 8.23     27 confirmed 2020-03-01T00:00:00Z
    ##  2 Switzerland CH          46.82 8.23     42 confirmed 2020-03-02T00:00:00Z
    ##  3 Switzerland CH          46.82 8.23     56 confirmed 2020-03-03T00:00:00Z
    ##  4 Switzerland CH          46.82 8.23     90 confirmed 2020-03-04T00:00:00Z
    ##  5 Switzerland CH          46.82 8.23    114 confirmed 2020-03-05T00:00:00Z
    ##  6 Switzerland CH          46.82 8.23    214 confirmed 2020-03-06T00:00:00Z
    ##  7 Switzerland CH          46.82 8.23    268 confirmed 2020-03-07T00:00:00Z
    ##  8 Switzerland CH          46.82 8.23    337 confirmed 2020-03-08T00:00:00Z
    ##  9 Switzerland CH          46.82 8.23    374 confirmed 2020-03-09T00:00:00Z
    ## 10 Switzerland CH          46.82 8.23    491 confirmed 2020-03-10T00:00:00Z
    ## # ... with 54 more rows
…
